<svg width="320" height="400" viewBox="0 0 320 400" fill="none" xmlns="http://www.w3.org/2000/svg">
  <style>
    path { fill: #000000; }
    @media (prefers-color-scheme: dark) {
      path { fill: #ffffff; }
    }
  </style>
  <path d="M320 400.5V0L0 400.5H220L260 340.5H107.5L201.731 220.5H300V400.5H320Z"></path>
</svg>
  